id,name,model_id:id,group_id:id,perm_read,perm_write,perm_create,perm_unlink
access_computation_hierarchy_account,access_computation_hierarchy_account,model_bcr_computation_hierarchy,account.group_account_user,1,1,1,1
access_computation_setting_account,access_computation_setting_account,model_bcr_computation_setting,account.group_account_user,1,1,1,1
access_plbs_account,access_plbs_account,model_bcr_plbs,account.group_account_user,1,1,1,1
access_plbs_base,access_plbs_base,model_bcr_plbs,base.group_user,1,1,1,1
access_plbs_hierarchy_account,access_plbs_hierarchy_account,model_bcr_plbs_hierarchy,account.group_account_user,1,1,1,1
access_plbs_hierarchy_base,access_plbs_hierarchy_base,model_bcr_plbs_hierarchy,base.group_user,1,1,1,1
access_computation_hierarchy_base,access_computation_hierarchy_base,model_bcr_computation_hierarchy,base.group_user,0,0,0,0
access_analytic_balance_account,access_analytic_balance_account,model_bcr_analytic_balance,account.group_account_user,1,1,1,1
access_analytic_balance_line_account,access_analytic_balance_line_account,model_bcr_analytic_balance_line,account.group_account_user,1,1,1,1
access_analytic_balance_base,access_analytic_balance_base,model_bcr_analytic_balance,base.group_user,0,0,0,0
access_analytic_balance_line_base,access_analytic_balance_line_base,model_bcr_analytic_balance_line,base.group_user,0,0,0,0
access_computation_setting_base,access_computation_setting_base,model_bcr_computation_setting,base.group_user,0,0,0,0
