id,name,model,function,args,run_strategy,count,active
full_general_ledger_queue,Full general ledger generation,general_ledger,generate,"(%(general_ledger_id)s,)",No limit,0,True
limited_general_ledger_queue,Limted general ledger generation,general_ledger,generate,"(%(general_ledger_id)s,)",Do n items,2,True
